[
  {
    "id": 1,
    "first_name": "Gabriel",
    "last_name": "Delhay",
    "email": "gdelhay0@twitpic.com",
    "password": "SbSMkdGjNu"
  },
  {
    "id": 5,
    "first_name": "Lenka",
    "last_name": "Brayshay",
    "email": "lbrayshay4@wiley.com",
    "password": "vQdV9aJqdF8I"
  },
  {
    "id": 6,
    "first_name": "Billie",
    "last_name": "Dimmock",
    "email": "bdimmock5@elegantthemes.com",
    "password": "9z9Fh7"
  },
  {
    "id": 7,
    "first_name": "Bree",
    "last_name": "Skipp",
    "email": "bskipp6@cmu.edu",
    "password": "0JMr7tt2x"
  },
  {
    "id": 8,
    "first_name": "Eddie",
    "last_name": "Mallya",
    "email": "emallya7@techcrunch.com",
    "password": "eams5UYryf4"
  },
  {
    "id": 9,
    "first_name": "Leta",
    "last_name": "Tootal",
    "email": "ltootal8@economist.com",
    "password": "nU9fQpKSwLw"
  },
  {
    "id": 10,
    "first_name": "Eugenius",
    "last_name": "Gittens",
    "email": "egittens9@artisteer.com",
    "password": "3EZorIO"
  },
  {
    "id": 95,
    "first_name": "Body First Name",
    "last_name": "Body Last Name",
    "email": "Bodytest@test.com",
    "password": "$argon2id$v=19$m=4096,t=3,p=1$fgYh5GY0uIY60HNBc9z/oQ$6MR98OhiwdD+4A/kmv34EOIKjbTYATZ1xOf427VTEFY"
  },
  {
    "id": 96,
    "first_name": "Body First Refactor",
    "last_name": "Body Last Refactor",
    "email": "Bodytest_refactor@test.com",
    "password": "$argon2id$v=19$m=4096,t=3,p=1$4+lbfeZq83lXdqb2nFDmCg$WLSetEMqO4e69liO85RY+bfxJ5d8jWX1vO3Lwq6sGoE"
  },
  {
    "id": 99,
    "first_name": "Body First Refactor2",
    "last_name": "Body Last Refactor2",
    "email": "Bodytest_refactor2@test.com",
    "password": "$argon2id$v=19$m=4096,t=3,p=1$lUjQltEcxLc4TxcluVvvPA$B1GWsc6qqx8U2kFnoI1ynvHIxvjUA+AhxUfBqvSv97Q",
    "logged": true
  }
]
